<svg xmlns="http://www.w3.org/2000/svg" width="24" height="22" viewBox="0 0 24 22">
    <g fill="none">
        <path d="M0 0H24V24H0z" transform="translate(0 -1)"/>
        <path fill="#2C3F58" d="M1 22c-.276 0-.5.224-.5.5s.224.5.5.5v-1zm22 1c.276 0 .5-.224.5-.5s-.224-.5-.5-.5v1zM1 1c-.276 0-.5.224-.5.5s.224.5.5.5V1zm22 1c.276 0 .5-.224.5-.5S23.276 1 23 1v1zM7.5 9.5c0-.276-.224-.5-.5-.5s-.5.224-.5.5h1zm-.5 5l-.354.354c.196.195.512.195.708 0L7 14.5zm-1.146-1.854c-.196-.195-.512-.195-.708 0-.195.196-.195.512 0 .708l.708-.708zm3 .708c.195-.196.195-.512 0-.708-.196-.195-.512-.195-.708 0l.708.708zM16.5 14.5c0 .276.224.5.5.5s.5-.224.5-.5h-1zm.5-5l.354-.354c-.196-.195-.512-.195-.708 0L17 9.5zm-1.854 1.146c-.195.196-.195.512 0 .708.196.195.512.195.708 0l-.708-.708zm3 .708c.196.195.512.195.708 0 .195-.196.195-.512 0-.708l-.708.708zM2 1.5v21h1v-21H2zm20 21v-21h-1v21h1zM2.5 22H1v1h1.5v-1zm19 1H23v-1h-1.5v1zM2.5 1H1v1h1.5V1zm19 1H23V1h-1.5v1zm0-1H12v1h9.5V1zM12 1H2.5v1H12V1zM2.5 23H12v-1H2.5v1zm9.5 0h9.5v-1H12v1zm-.5-21.5v21h1v-21h-1zm-5 8v5h1v-5h-1zm.854 4.646l-1.5-1.5-.708.708 1.5 1.5.708-.708zm0 .708l1.5-1.5-.708-.708-1.5 1.5.708.708zM17.5 14.5v-5h-1v5h1zm-.854-5.354l-1.5 1.5.708.708 1.5-1.5-.708-.708zm0 .708l1.5 1.5.708-.708-1.5-1.5-.708.708z" transform="translate(0 -1)"/>
    </g>
</svg>
